%YAML 1.1
%TAG !u! tag:unity3d.com,2011:
--- !u!74 &7400000
AnimationClip:
  m_ObjectHideFlags: 0
  m_PrefabParentObject: {fileID: 0}
  m_PrefabInternal: {fileID: 0}
  m_Name: Explosion
  serializedVersion: 6
  m_Legacy: 0
  m_Compressed: 0
  m_UseHighQualityCurve: 1
  m_RotationCurves: []
  m_CompressedRotationCurves: []
  m_EulerCurves: []
  m_PositionCurves: []
  m_ScaleCurves: []
  m_FloatCurves: []
  m_PPtrCurves:
  - curve:
    - time: 0
      value: {fileID: 21300000, guid: 961016d6447ebc34e8ee2ac861f004e7, type: 3}
    - time: 0.083333336
      value: {fileID: 21300000, guid: 09ffd9299afb7cc438d782a93d52a21a, type: 3}
    - time: 0.16666667
      value: {fileID: 21300000, guid: 158951a83f794744e878f0787c9ab3bb, type: 3}
    - time: 0.25
      value: {fileID: 21300000, guid: 4ff333f66e30ea941856841d3e41d0ba, type: 3}
    - time: 0.33333334
      value: {fileID: 21300000, guid: 62c59db1e5d36c046b00e17ce0e6c087, type: 3}
    - time: 0.41666666
      value: {fileID: 21300000, guid: fb9afac6cb61d84428cd02c72d247c2c, type: 3}
    - time: 0.5
      value: {fileID: 21300000, guid: baf9afc9f5c49e948aa0a67eab07c9c2, type: 3}
    - time: 0.5833333
      value: {fileID: 21300000, guid: dd56c90283204e74eb488f10c1e3ed94, type: 3}
    - time: 0.6666667
      value: {fileID: 21300000, guid: b4b699fa45b8e654abf8eb708fb6a6be, type: 3}
    - time: 0.75
      value: {fileID: 21300000, guid: 7525223da8d30694bbb220b7381d4e3d, type: 3}
    - time: 0.8333333
      value: {fileID: 21300000, guid: 3cf2b3c126f61424ebaeefc2c4753a31, type: 3}
    - time: 0.9166667
      value: {fileID: 21300000, guid: 6c5800752d52ab2418e6fcef962eb711, type: 3}
    - time: 1
      value: {fileID: 21300000, guid: dd0b6761c9502504fac94697de095fda, type: 3}
    - time: 1.0833334
      value: {fileID: 21300000, guid: c7e217e6fdc392d43b6ce6375781bb09, type: 3}
    - time: 1.1666666
      value: {fileID: 21300000, guid: e6e30165dfb23004ebb70cebe11008d5, type: 3}
    - time: 1.25
      value: {fileID: 21300000, guid: 18553637ec09a9b48bd33b22677289de, type: 3}
    - time: 1.3333334
      value: {fileID: 21300000, guid: 341095d2e0173d84794d3e364616c2b5, type: 3}
    - time: 1.4166666
      value: {fileID: 21300000, guid: 0331405706fced4409821c1941d8e310, type: 3}
    - time: 1.5
      value: {fileID: 21300000, guid: 0b68b1222cb1034409a732b59d03ba3b, type: 3}
    - time: 1.5833334
      value: {fileID: 21300000, guid: 13e12eb1a3d1fbf41bdefb1b8833d998, type: 3}
    attribute: m_Sprite
    path: 
    classID: 212
    script: {fileID: 0}
  m_SampleRate: 12
  m_WrapMode: 0
  m_Bounds:
    m_Center: {x: 0, y: 0, z: 0}
    m_Extent: {x: 0, y: 0, z: 0}
  m_ClipBindingConstant:
    genericBindings:
    - serializedVersion: 2
      path: 0
      attribute: 0
      script: {fileID: 0}
      typeID: 212
      customType: 23
      isPPtrCurve: 1
    pptrCurveMapping:
    - {fileID: 21300000, guid: 961016d6447ebc34e8ee2ac861f004e7, type: 3}
    - {fileID: 21300000, guid: 09ffd9299afb7cc438d782a93d52a21a, type: 3}
    - {fileID: 21300000, guid: 158951a83f794744e878f0787c9ab3bb, type: 3}
    - {fileID: 21300000, guid: 4ff333f66e30ea941856841d3e41d0ba, type: 3}
    - {fileID: 21300000, guid: 62c59db1e5d36c046b00e17ce0e6c087, type: 3}
    - {fileID: 21300000, guid: fb9afac6cb61d84428cd02c72d247c2c, type: 3}
    - {fileID: 21300000, guid: baf9afc9f5c49e948aa0a67eab07c9c2, type: 3}
    - {fileID: 21300000, guid: dd56c90283204e74eb488f10c1e3ed94, type: 3}
    - {fileID: 21300000, guid: b4b699fa45b8e654abf8eb708fb6a6be, type: 3}
    - {fileID: 21300000, guid: 7525223da8d30694bbb220b7381d4e3d, type: 3}
    - {fileID: 21300000, guid: 3cf2b3c126f61424ebaeefc2c4753a31, type: 3}
    - {fileID: 21300000, guid: 6c5800752d52ab2418e6fcef962eb711, type: 3}
    - {fileID: 21300000, guid: dd0b6761c9502504fac94697de095fda, type: 3}
    - {fileID: 21300000, guid: c7e217e6fdc392d43b6ce6375781bb09, type: 3}
    - {fileID: 21300000, guid: e6e30165dfb23004ebb70cebe11008d5, type: 3}
    - {fileID: 21300000, guid: 18553637ec09a9b48bd33b22677289de, type: 3}
    - {fileID: 21300000, guid: 341095d2e0173d84794d3e364616c2b5, type: 3}
    - {fileID: 21300000, guid: 0331405706fced4409821c1941d8e310, type: 3}
    - {fileID: 21300000, guid: 0b68b1222cb1034409a732b59d03ba3b, type: 3}
    - {fileID: 21300000, guid: 13e12eb1a3d1fbf41bdefb1b8833d998, type: 3}
  m_AnimationClipSettings:
    serializedVersion: 2
    m_AdditiveReferencePoseClip: {fileID: 0}
    m_AdditiveReferencePoseTime: 0
    m_StartTime: 0
    m_StopTime: 1.6666666
    m_OrientationOffsetY: 0
    m_Level: 0
    m_CycleOffset: 0
    m_HasAdditiveReferencePose: 0
    m_LoopTime: 0
    m_LoopBlend: 0
    m_LoopBlendOrientation: 0
    m_LoopBlendPositionY: 0
    m_LoopBlendPositionXZ: 0
    m_KeepOriginalOrientation: 0
    m_KeepOriginalPositionY: 1
    m_KeepOriginalPositionXZ: 0
    m_HeightFromFeet: 0
    m_Mirror: 0
  m_EditorCurves: []
  m_EulerEditorCurves: []
  m_HasGenericRootTransform: 0
  m_HasMotionFloatCurves: 0
  m_GenerateMotionCurves: 0
  m_Events: []
